playback.vcd
$date
	Tue Dec 05 20:14:54 2023
$end
$version
	Icarus Verilog
$end
$timescale
	1ps
$end
$scope module playback_tb $end
$var wire 8 ! audio_out [7:0] $end
$var reg 1 " clk_in $end
$var reg 1 # new_game $end
$var reg 1 $ signal_12khz $end
$var reg 1 % start_playback $end
$scope module my_playback $end
$var wire 1 " clk_in $end
$var wire 1 # rst_in $end
$var wire 1 $ signal_12khz $end
$var wire 1 % start_playback $end
$var wire 32 & debug_out [31:0] $end
$var wire 8 ' brom_out [7:0] $end
$var parameter 32 ( audio_len $end
$var reg 8 ) audio_out [7:0] $end
$var reg 16 * counter [15:0] $end
$var reg 1 + playing_back $end
$scope module bram_ball $end
$var wire 16 , addra [15:0] $end
$var wire 1 " clka $end
$var wire 8 - dina [7:0] $end
$var wire 1 . ena $end
$var wire 1 / regcea $end
$var wire 1 # rsta $end
$var wire 1 0 wea $end
$var wire 8 1 douta [7:0] $end
$var parameter 120 2 INIT_FILE $end
$var parameter 32 3 RAM_DEPTH $end
$var parameter 128 4 RAM_PERFORMANCE $end
$var parameter 32 5 RAM_WIDTH $end
$var reg 8 6 ram_data [7:0] $end
$scope function clogb2 $end
$var integer 32 7 depth [31:0] $end
$upscope $end
$scope begin output_register $end
$var reg 8 8 douta_reg [7:0] $end
$upscope $end
$scope begin use_init_file $end
$upscope $end
$upscope $end
$upscope $end
$upscope $end
$enddefinitions $end
$comment Show the parameter values. $end
$dumpall
b1000 5
b1001000010010010100011101001000010111110101000001000101010100100100011001001111010100100100110101000001010011100100001101000101 4
b10000000000000000 3
b11001000110000101110100011000010010111101100010011011110111010101101110011000110110010100101110011011010110010101101101 2
b100101100000000 (
$end
#0
$dumpvars
b0 8
bx 7
b0 6
b0 1
00
1/
1.
b0 -
bx ,
x+
bx *
bx )
b0 '
b0x &
x%
1$
0#
0"
bx !
$end
#5000
bx 6
b0 !
b0 )
1"
#10000
0"
1#
0$
#15000
b0 &
0+
b0 *
b0 ,
1"
#20000
0"
0#
#25000
bx '
bx 1
bx 8
b11101010 6
1"
#30000
0"
1%
#35000
b1 &
1+
b11101010 '
b11101010 1
b11101010 8
1"
#40000
0"
0%
#45000
b11101010 !
b11101010 )
1"
